@startuml Registration

left to right direction

usecase (Sign Up\nVerificator) as suv

usecase (Email\nRegister Confirmation) as erc

actor "Verificator" as uv
actor "Registered User" as ur


uv --> suv
suv --> erc
erc --> ur:Confirmed

@enduml
